Getting started • EpiSoon
…
Fit a bsts model and produce a Rt forecast. Any appropriately wrapped model can be used (see bsts_model and fable_model for an examples).

rt_forecast <- forecast_rt(EpiSoon::example_obs_rts[1:10, ],
                       model = function(...){EpiSoon::bsts_model(model = function(ss, y){bsts::AddAutoAr(ss, y = y, lags = 10)}, ...)},
                       horizon = 21, samples = 10)

rt_forecast
#> # A tibble: 210 x 4
#>    sample date          rt horizon
#>     <int> <date>     <dbl>   <int>
#>  1      1 2020-03-11 0.149       1
#>  2      2 2020-03-11 2.09        1
#>  3      3 2020-03-11 1.96        1
#>  4      4 2020-03-11 2.02        1
#>  5      5 2020-03-11 2.10        1
#>  6      6 2020-03-11 1.99        1
#>  7      7 2020-03-11 1.87        1
#>  8      8 2020-03-11 1.98        1
#>  9      9 2020-03-11 1.99        1
#> 10     10 2020-03-11 1.99        1
#> # … with 200 more rows
…
Summarise the forecast

summarised_rt_forecast <- summarise_forecast(rt_forecast)

summarised_rt_forecast
#> # A tibble: 21 x 9
#>    date       horizon median  mean    sd bottom lower upper   top
#>    <date>       <int>  <dbl> <dbl> <dbl>  <dbl> <dbl> <dbl> <dbl>
#>  1 2020-03-11       1   1.99  1.81 0.588 0.149   1.96  2.02  2.10
#>  2 2020-03-12       2   1.98  1.77 0.628 0       1.97  2.08  2.08
#>  3 2020-03-13       3   1.90  1.73 0.606 0.0383  1.82  1.96  2.14
#>  4 2020-03-14       4   1.91  1.72 0.598 0.0672  1.78  1.95  2.16
#>  5 2020-03-15       5   1.79  1.65 0.605 0       1.71  1.95  2.19
#>  6 2020-03-16       6   1.78  1.65 0.613 0       1.54  1.86  2.15
#>  7 2020-03-17       7   1.78  1.66 0.626 0       1.50  1.84  2.20
#>  8 2020-03-18       8   1.72  1.61 0.617 0       1.45  1.80  2.19
#>  9 2020-03-19       9   1.69  1.59 0.620 0       1.46  1.72  2.24
#> 10 2020-03-20      10   1.62  1.55 0.616 0       1.40  1.71  2.25
#> # … with 11 more rows
…
Forecast cases, score and plot

Forecasting cases requires the observed cases on which the observed Rt estimates were based

EpiSoon::example_obs_cases
#> # A tibble: 63 x 2
#>    cases date      
#>    <dbl> <date>    
#>  1     1 2020-01-20
#>  2     0 2020-01-21
#>  3     1 2020-01-22
#>  4     0 2020-01-23
#>  5     0 2020-01-24
#>  6     0 2020-01-25
#>  7     1 2020-01-26
#>  8     0 2020-01-27
#>  9     0 2020-01-28
#> 10     0 2020-01-29
#> # … with 53 more rows
…
Summarise the cases forecast

summarised_case_forecast <- summarise_case_forecast(case_forecast)

summarised_case_forecast
#> # A tibble: 21 x 9
#>    date       horizon median  mean    sd bottom lower upper   top
#>    <date>       <int>  <dbl> <dbl> <dbl>  <dbl> <dbl> <dbl> <dbl>
#>  1 2020-03-11       1   178.  162.  53.6     11   177   190   190
#>  2 2020-03-12       2   190.  174.  64.6      0   177   215   217
#>  3 2020-03-13       3   234.  215.  79.1      3   222   249   285
#>  4 2020-03-14       4   265   233.  88.9      1   263   294   294
#>  5 2020-03-15       5   302   282  108.       0   283   334   412
#>  6 2020-03-16       6   362   330. 132.       0   323   401   457
#>  7 2020-03-17       7   412   386. 157.       0   355   481   559
#>  8 2020-03-18       8   455   435. 190.       0   399   536   673
#>  9 2020-03-19       9   494.  499. 235.       0   426   616   833
#> 10 2020-03-20      10   521   564. 301.       0   448   709  1035
#> # … with 11 more rows
…
Use iterative fitting to explore a forecast

To explore the quality of a models forecast it can help to iteratively forecast from each available data point. This is supported in EpiSoon using the following:

it_rt_forecast <- iterative_rt_forecast(EpiSoon::example_obs_rts,
                                        model = function(...){
                                          EpiSoon::bsts_model(model = function(ss, y){bsts::AddAutoAr(ss, y = y, lags = 10)}, ...)
                                          },
                                        horizon = 7, samples = 10, min_points = 4)

it_rt_forecast
#> # A tibble: 1,260 x 5
#>    forecast_date sample date            rt horizon
#>    <chr>          <int> <date>       <dbl>   <int>
#>  1 2020-03-05         1 2020-03-06 0.00527       1
#>  2 2020-03-05         2 2020-03-06 2.10          1
#>  3 2020-03-05         3 2020-03-06 2.12          1
#>  4 2020-03-05         4 2020-03-06 2.18          1
#>  5 2020-03-05         5 2020-03-06 2.17          1
#>  6 2020-03-05         6 2020-03-06 0.383         1
#>  7 2020-03-05         7 2020-03-06 2.23          1
#>  8 2020-03-05         8 2020-03-06 2.25          1
#>  9 2020-03-05         9 2020-03-06 2.16          1
#> 10 2020-03-05        10 2020-03-06 2.20          1
#> # … with 1,250 more rows
…
model_eval
#> $forecast_rts
#> # A tibble: 399 x 10
#>    forecast_date date       horizon median  mean    sd  bottom lower upper   top
#>    <chr>         <date>       <int>  <dbl> <dbl> <dbl>   <dbl> <dbl> <dbl> <dbl>
#>  1 2020-03-04    2020-03-05       1   2.25  2.06 0.731 0        2.22  2.31  2.54
#>  2 2020-03-04    2020-03-06       2   2.21  2.03 0.715 0.0543   2.07  2.25  2.67
#>  3 2020-03-04    2020-03-07       3   2.07  2.00 0.760 0        2.01  2.29  2.94
#>  4 2020-03-04    2020-03-08       4   2.02  1.94 0.731 0        1.99  2.39  2.69
#>  5 2020-03-04    2020-03-09       5   1.97  1.90 0.705 0.0766   1.77  2.22  2.73
#>  6 2020-03-04    2020-03-10       6   1.87  1.83 0.717 0.00419  1.69  2.14  2.70
#>  7 2020-03-04    2020-03-11       7   1.78  1.76 0.706 0        1.62  1.99  2.67
#>  8 2020-03-04    2020-03-12       8   1.77  1.73 0.714 0        1.54  1.93  2.73
#>  9 2020-03-04    2020-03-13       9   1.75  1.70 0.710 0        1.44  1.94  2.66
#> 10 2020-03-04    2020-03-14      10   1.69  1.65 0.705 0        1.38  1.87  2.70
#> # … with 389 more rows
#> 
#> $rt_scores
#> # A tibble: 170 x 12
#>    forecast_date date       horizon    dss   crps    logs   bias sharpness
#>    <chr>         <date>       <int>  <dbl>  <dbl>   <dbl>  <dbl>     <dbl>
#>  1 2020-03-04    2020-03-05       1 -0.645 0.0395 -1.66   -0.200    0.0631
#>  2 2020-03-04    2020-03-06       2 -0.719 0.0560 -0.859   0        0.155 
#>  3 2020-03-04    2020-03-07       3 -0.613 0.0850 -0.389  -0.200    0.224 
#>  4 2020-03-04    2020-03-08       4 -0.678 0.101  -0.0641 -0.200    0.307 
#>  5 2020-03-04    2020-03-09       5 -0.745 0.111   0.0608 -0.200    0.333 
#>  6 2020-03-04    2020-03-10       6 -0.690 0.125   0.141  -0.200    0.331 
#>  7 2020-03-04    2020-03-11       7 -0.660 0.144   0.284  -0.400    0.279 
#>  8 2020-03-04    2020-03-12       8 -0.623 0.155   0.345  -0.400    0.312 
#>  9 2020-03-04    2020-03-13       9 -0.635 0.154   0.394  -0.400    0.428 
#> 10 2020-03-04    2020-03-14      10 -0.606 0.169   0.431  -0.400    0.403 
#> # … with 160 more rows, and 4 more variables: calibration <dbl>, median <dbl>,
#> #   iqr <dbl>, ci <dbl>
#> 
#> $forecast_cases
#> # A tibble: 171 x 10
#>    forecast_date date       horizon median  mean    sd bottom lower upper   top
#>    <chr>         <date>       <int>  <dbl> <dbl> <dbl>  <dbl> <dbl> <dbl> <dbl>
#>  1 2020-03-04    2020-03-05       1   66    63    24.4      0    59    71    89
#>  2 2020-03-04    2020-03-06       2   83.5  79.3  28.0      2    80    89    97
#>  3 2020-03-04    2020-03-07       3   95    89.9  39.7      0    82   104   159
#>  4 2020-03-04    2020-03-08       4  118   115.   48.1      0   101   136   185
#>  5 2020-03-04    2020-03-09       5  135   132.   62.2      2   114   171   242
#>  6 2020-03-04    2020-03-10       6  152.  158.   81.1      0   144   214   313
#>  7 2020-03-04    2020-03-11       7  174.  185.  103.       0   144   205   401
#>  8 2020-03-04    2020-03-12       8  158.  208.  145.       0   121   233   531
#>  9 2020-03-04    2020-03-13       9  200.  264.  181.       0   166   276   682
#> 10 2020-03-04    2020-03-14      10  209   300.  245.       0   180   348   897
#> # … with 161 more rows
#> 
#> $case_scores
#> # A tibble: 170 x 13
#>    sample forecast_date date       horizon   dss  crps  logs   bias sharpness
#>    <chr>  <chr>         <date>       <int> <dbl> <dbl> <dbl>  <dbl>     <dbl>
#>  1 1      2020-03-04    2020-03-05       1  6.29  3.7   3.48  0.200      9.64
#>  2 1      2020-03-04    2020-03-06       2  6.62  9.77  4.43  0.8        6.67
#>  3 1      2020-03-04    2020-03-07       3  7.26  6.51  4.07  0.200     17.8 
#>  4 1      2020-03-04    2020-03-08       4  7.73 11.2   4.59  0.4       25.9 
#>  5 1      2020-03-04    2020-03-09       5  8.23 14.2   4.95  0.200     46.0 
#>  6 1      2020-03-04    2020-03-10       6  8.73 15.7   5.16  0.4       58.6 
#>  7 1      2020-03-04    2020-03-11       7  9.20 16.2   4.99  0         45.2 
#>  8 1      2020-03-04    2020-03-12       8  9.86 31.0   5.69 -0.200     83.0 
#>  9 1      2020-03-04    2020-03-13       9 10.4  27.9   5.66 -0.200     81.5 
#> 10 1      2020-03-04    2020-03-14      10 10.9  45.0   6.03 -0.200    129.  
#> # … with 160 more rows, and 4 more variables: calibration <dbl>, median <dbl>,
#> #   iqr <dbl>, ci <dbl>
…
